{"failedCount":0,"prefixedPath":"classpath:features\/api\/getapi.feature","packageQualifiedName":"features.api.getapi","loopIndex":-1,"relativePath":"features\/api\/getapi.feature","scenarioResults":[{"sectionIndex":0,"stepResults":[{"result":{"nanos":591638,"millis":0.591638,"status":"passed"},"step":{"background":true,"line":3,"prefix":"*","index":0,"text":"url 'https:\/\/reqres.in\/api'"},"stepLog":"21:26:27.064 karate.env system property was: null \n"},{"result":{"nanos":298253,"millis":0.298253,"status":"passed"},"step":{"line":7,"prefix":"Given","index":0,"text":"path \"users\/2\""}},{"result":{"nanos":2096265138,"millis":2096.265138,"status":"passed"},"step":{"line":8,"prefix":"When","index":1,"text":"method get"},"stepLog":"21:26:27.265 request:\n1 > GET https:\/\/reqres.in\/api\/users\/2\n1 > Host: reqres.in\n1 > Connection: Keep-Alive\n1 > User-Agent: Apache-HttpClient\/4.5.12 (Java\/11.0.17)\n1 > Accept-Encoding: gzip,deflate\n\n\n21:26:29.163 response time in milliseconds: 1897\n1 < 200\n1 < Date: Mon, 23 Jan 2023 15:56:29 GMT\n1 < Content-Type: application\/json; charset=utf-8\n1 < Transfer-Encoding: chunked\n1 < Connection: keep-alive\n1 < X-Powered-By: Express\n1 < Access-Control-Allow-Origin: *\n1 < Etag: W\/\"118-pbdwwFo9SKNhD3Lx5iHJyngpq00\"\n1 < Via: 1.1 vegur\n1 < Cache-Control: max-age=14400\n1 < CF-Cache-Status: REVALIDATED\n1 < Report-To: {\"endpoints\":[{\"url\":\"https:\\\/\\\/a.nel.cloudflare.com\\\/report\\\/v3?s=pOcIS3cRSUIeNfhHl7U3tykOFNGvdJRA6vfD%2BSAp8MeBjJ6jqv7JFMSdhqdtIWOdh1IaJPJ4SuG%2BKGCcRjwmZoZKw0jXJJ%2BaklYN93%2FFvbtwU8Lv4u8hFalyWw%3D%3D\"}],\"group\":\"cf-nel\",\"max_age\":604800}\n1 < NEL: {\"success_fraction\":0,\"report_to\":\"cf-nel\",\"max_age\":604800}\n1 < Vary: Accept-Encoding\n1 < Server: cloudflare\n1 < CF-RAY: 78e1b837bfa892f9-CMB\n{\"data\":{\"id\":2,\"email\":\"janet.weaver@reqres.in\",\"first_name\":\"Janet\",\"last_name\":\"Weaver\",\"avatar\":\"https:\/\/reqres.in\/img\/faces\/2-image.jpg\"},\"support\":{\"url\":\"https:\/\/reqres.in\/#support-heading\",\"text\":\"To keep ReqRes free, contributions towards server costs are appreciated!\"}}\n\n"},{"result":{"nanos":8449,"millis":0.008449,"status":"passed"},"step":{"line":9,"prefix":"Then","index":2,"text":"status 200"}}],"line":6,"description":"","durationMillis":2097.163478,"failed":false,"tags":["getUser"],"executorName":"pool-1-thread-1","name":"Get the details of user2","startTime":1674489386843,"refId":"[1:6]","endTime":1674489389164,"exampleIndex":-1},{"sectionIndex":1,"stepResults":[{"result":{"nanos":1080975,"millis":1.080975,"status":"passed"},"step":{"background":true,"line":3,"prefix":"*","index":0,"text":"url 'https:\/\/reqres.in\/api'"},"stepLog":"21:26:27.022 karate.env system property was: null \n"},{"result":{"nanos":456514,"millis":0.456514,"status":"passed"},"step":{"line":14,"prefix":"Given","index":0,"text":"path \"users\""}},{"result":{"nanos":47827019,"millis":47.827019,"status":"passed"},"step":{"endLine":22,"line":15,"prefix":"And","docString":"{\n \"name\": \"morpheus1\",\n \"job\": \"leader1\",\n}","index":1,"text":"request"}},{"result":{"nanos":1987675793,"millis":1987.675793,"status":"passed"},"step":{"line":23,"prefix":"When","index":2,"text":"method post"},"stepLog":"21:26:27.266 request:\n1 > POST https:\/\/reqres.in\/api\/users\n1 > Content-Type: application\/json; charset=UTF-8\n1 > Content-Length: 36\n1 > Host: reqres.in\n1 > Connection: Keep-Alive\n1 > User-Agent: Apache-HttpClient\/4.5.12 (Java\/11.0.17)\n1 > Accept-Encoding: gzip,deflate\n{\"name\":\"morpheus1\",\"job\":\"leader1\"}\n\n21:26:29.089 response time in milliseconds: 1819\n1 < 201\n1 < Date: Mon, 23 Jan 2023 15:56:29 GMT\n1 < Content-Type: application\/json; charset=utf-8\n1 < Content-Length: 86\n1 < Connection: keep-alive\n1 < X-Powered-By: Express\n1 < Access-Control-Allow-Origin: *\n1 < Etag: W\/\"56-LtnB1JJmDRa8pTbshlbNfYGzrLU\"\n1 < Via: 1.1 vegur\n1 < CF-Cache-Status: DYNAMIC\n1 < Report-To: {\"endpoints\":[{\"url\":\"https:\\\/\\\/a.nel.cloudflare.com\\\/report\\\/v3?s=Qikox5sz5pMLnXpeFrqrMzTnLMN1ocy9ROlbK%2BWR%2BRxwoaHAIoR94gbiAITXpu202lAgqm7aYkYvr1u82WVhoVWgSs%2BN%2FR%2BKgU1dwDmry7JJE65VEjV7MNzdUA%3D%3D\"}],\"group\":\"cf-nel\",\"max_age\":604800}\n1 < NEL: {\"success_fraction\":0,\"report_to\":\"cf-nel\",\"max_age\":604800}\n1 < Server: cloudflare\n1 < CF-RAY: 78e1b8378ee792f5-CMB\n{\"name\":\"morpheus1\",\"job\":\"leader1\",\"id\":\"205\",\"createdAt\":\"2023-01-23T15:56:29.069Z\"}\n\n"},{"result":{"nanos":21190,"millis":0.02119,"status":"passed"},"step":{"line":24,"prefix":"Then","index":3,"text":"status 201"}},{"result":{"nanos":22868685,"millis":22.868685,"status":"passed"},"step":{"line":25,"prefix":"Then","index":4,"text":"match response == \"#object\""}},{"result":{"nanos":952797,"millis":0.952797,"status":"passed"},"step":{"line":26,"prefix":"Then","index":5,"text":"match response.name == \"morpheus1\""}},{"result":{"nanos":388385,"millis":0.388385,"status":"passed"},"step":{"line":28,"prefix":"*","index":6,"text":"def personId = response"}}],"line":13,"description":"","durationMillis":2061.271358,"failed":false,"tags":["createUser"],"executorName":"pool-1-thread-2","name":"Create A person","startTime":1674489386843,"refId":"[2:13]","endTime":1674489389115,"exampleIndex":-1},{"sectionIndex":2,"stepResults":[{"result":{"nanos":1074376,"millis":1.074376,"status":"passed"},"step":{"background":true,"line":3,"prefix":"*","index":0,"text":"url 'https:\/\/reqres.in\/api'"},"stepLog":"21:26:27.040 karate.env system property was: null \n"},{"result":{"nanos":465081,"millis":0.465081,"status":"passed"},"step":{"line":32,"prefix":"Given","index":0,"text":"path \"users\""}},{"result":{"nanos":990436,"millis":0.990436,"status":"passed"},"step":{"line":33,"prefix":"And","index":1,"text":"param page = \"2\""}},{"result":{"nanos":2034060662,"millis":2034.060662,"status":"passed"},"step":{"line":34,"prefix":"When","index":2,"text":"method get"},"stepLog":"21:26:27.265 request:\n1 > GET https:\/\/reqres.in\/api\/users?page=2\n1 > Host: reqres.in\n1 > Connection: Keep-Alive\n1 > User-Agent: Apache-HttpClient\/4.5.12 (Java\/11.0.17)\n1 > Accept-Encoding: gzip,deflate\n\n\n21:26:29.089 response time in milliseconds: 1823\n1 < 200\n1 < Date: Mon, 23 Jan 2023 15:56:29 GMT\n1 < Content-Type: application\/json; charset=utf-8\n1 < Transfer-Encoding: chunked\n1 < Connection: keep-alive\n1 < X-Powered-By: Express\n1 < Access-Control-Allow-Origin: *\n1 < Etag: W\/\"406-ut0vzoCuidvyMf8arZpMpJ6ZRDw\"\n1 < Via: 1.1 vegur\n1 < Cache-Control: max-age=14400\n1 < CF-Cache-Status: REVALIDATED\n1 < Report-To: {\"endpoints\":[{\"url\":\"https:\\\/\\\/a.nel.cloudflare.com\\\/report\\\/v3?s=hyuYNjm8dV1HjSZOwa3xU9bXX44BjGqTjTjhRNJq8V%2BwzQdd4ZV900EoAnlZoSbhTM11OX5o2aIP6VCXFXZYqVa9Z69aFLxupRemw4U4gqBsZRI3RlB5fqPieQ%3D%3D\"}],\"group\":\"cf-nel\",\"max_age\":604800}\n1 < NEL: {\"success_fraction\":0,\"report_to\":\"cf-nel\",\"max_age\":604800}\n1 < Vary: Accept-Encoding\n1 < Server: cloudflare\n1 < CF-RAY: 78e1b8378ee892f5-CMB\n{\"page\":2,\"per_page\":6,\"total\":12,\"total_pages\":2,\"data\":[{\"id\":7,\"email\":\"michael.lawson@reqres.in\",\"first_name\":\"Michael\",\"last_name\":\"Lawson\",\"avatar\":\"https:\/\/reqres.in\/img\/faces\/7-image.jpg\"},{\"id\":8,\"email\":\"lindsay.ferguson@reqres.in\",\"first_name\":\"Lindsay\",\"last_name\":\"Ferguson\",\"avatar\":\"https:\/\/reqres.in\/img\/faces\/8-image.jpg\"},{\"id\":9,\"email\":\"tobias.funke@reqres.in\",\"first_name\":\"Tobias\",\"last_name\":\"Funke\",\"avatar\":\"https:\/\/reqres.in\/img\/faces\/9-image.jpg\"},{\"id\":10,\"email\":\"byron.fields@reqres.in\",\"first_name\":\"Byron\",\"last_name\":\"Fields\",\"avatar\":\"https:\/\/reqres.in\/img\/faces\/10-image.jpg\"},{\"id\":11,\"email\":\"george.edwards@reqres.in\",\"first_name\":\"George\",\"last_name\":\"Edwards\",\"avatar\":\"https:\/\/reqres.in\/img\/faces\/11-image.jpg\"},{\"id\":12,\"email\":\"rachel.howell@reqres.in\",\"first_name\":\"Rachel\",\"last_name\":\"Howell\",\"avatar\":\"https:\/\/reqres.in\/img\/faces\/12-image.jpg\"}],\"support\":{\"url\":\"https:\/\/reqres.in\/#support-heading\",\"text\":\"To keep ReqRes free, contributions towards server costs are appreciated!\"}}\n\n"},{"result":{"nanos":6673,"millis":0.006673,"status":"passed"},"step":{"line":35,"prefix":"Then","index":3,"text":"status 200"}},{"result":{"nanos":22882700,"millis":22.8827,"status":"passed"},"step":{"line":36,"prefix":"Then","index":4,"text":"match response.page == 2"}}],"line":31,"description":"","durationMillis":2059.479928,"failed":false,"tags":["getUserbyParam"],"executorName":"pool-1-thread-3","name":"Get the details of user by param","startTime":1674489386843,"refId":"[3:31]","endTime":1674489389114,"exampleIndex":-1}],"callDepth":0,"name":"Get the user details of 2","description":"","resultDate":"2023-01-23 09:26:29 PM","durationMillis":6217.914764,"passedCount":3}