{"failedCount":0,"prefixedPath":"classpath:features\/api\/getapi.feature","packageQualifiedName":"features.api.getapi","loopIndex":-1,"relativePath":"features\/api\/getapi.feature","scenarioResults":[{"sectionIndex":0,"stepResults":[{"result":{"nanos":906460,"millis":0.90646,"status":"passed"},"step":{"background":true,"line":3,"prefix":"*","index":0,"text":"url 'https:\/\/reqres.in\/api'"},"stepLog":"21:32:48.031 karate.env system property was: dev \n"},{"result":{"nanos":437106,"millis":0.437106,"status":"passed"},"step":{"line":7,"prefix":"Given","index":0,"text":"path \"users\/2\""}},{"result":{"nanos":24515259192,"millis":24515.259192,"status":"passed"},"step":{"line":8,"prefix":"When","index":1,"text":"method get"},"stepLog":"21:32:48.278 request:\n1 > GET https:\/\/reqres.in\/api\/users\/2\n1 > Host: reqres.in\n1 > Connection: Keep-Alive\n1 > User-Agent: Apache-HttpClient\/4.5.12 (Java\/11.0.17)\n1 > Accept-Encoding: gzip,deflate\n\n\n21:33:12.552 response time in milliseconds: 24274\n1 < 200\n1 < Date: Mon, 23 Jan 2023 16:03:05 GMT\n1 < Content-Type: application\/json; charset=utf-8\n1 < Transfer-Encoding: chunked\n1 < Connection: keep-alive\n1 < X-Powered-By: Express\n1 < Access-Control-Allow-Origin: *\n1 < Etag: W\/\"118-pbdwwFo9SKNhD3Lx5iHJyngpq00\"\n1 < Via: 1.1 vegur\n1 < Cache-Control: max-age=14400\n1 < CF-Cache-Status: HIT\n1 < Age: 396\n1 < Report-To: {\"endpoints\":[{\"url\":\"https:\\\/\\\/a.nel.cloudflare.com\\\/report\\\/v3?s=sofHR%2BpbLKLD4SmtDwXzOCLv0G71TelZ2Y5pLpg3fyA%2F0XV9HDdCjLfcV8UOfXD8d4kW4cuIpMsx0tksunTPz%2BmYJH0L8EDfY9ZBcyZeYeNwL%2BLW1GdUEvzfWw%3D%3D\"}],\"group\":\"cf-nel\",\"max_age\":604800}\n1 < NEL: {\"success_fraction\":0,\"report_to\":\"cf-nel\",\"max_age\":604800}\n1 < Vary: Accept-Encoding\n1 < Server: cloudflare\n1 < CF-RAY: 78e1c1e9187492f6-CMB\n{\"data\":{\"id\":2,\"email\":\"janet.weaver@reqres.in\",\"first_name\":\"Janet\",\"last_name\":\"Weaver\",\"avatar\":\"https:\/\/reqres.in\/img\/faces\/2-image.jpg\"},\"support\":{\"url\":\"https:\/\/reqres.in\/#support-heading\",\"text\":\"To keep ReqRes free, contributions towards server costs are appreciated!\"}}\n\n"},{"result":{"nanos":8797,"millis":0.008797,"status":"passed"},"step":{"line":9,"prefix":"Then","index":2,"text":"status 200"}}],"line":6,"description":"","durationMillis":24516.611555,"failed":false,"tags":["getUser"],"executorName":"pool-1-thread-1","name":"Get the details of user2","startTime":1674489767836,"refId":"[1:6]","endTime":1674489792554,"exampleIndex":-1},{"sectionIndex":1,"stepResults":[{"result":{"nanos":603112,"millis":0.603112,"status":"passed"},"step":{"background":true,"line":3,"prefix":"*","index":0,"text":"url 'https:\/\/reqres.in\/api'"},"stepLog":"21:32:48.039 karate.env system property was: dev \n"},{"result":{"nanos":281170,"millis":0.28117,"status":"passed"},"step":{"line":14,"prefix":"Given","index":0,"text":"path \"users\""}},{"result":{"nanos":50010242,"millis":50.010242,"status":"passed"},"step":{"endLine":22,"line":15,"prefix":"And","docString":"{\n \"name\": \"morpheus1\",\n \"job\": \"leader1\",\n}","index":1,"text":"request"}},{"result":{"nanos":24568456420,"millis":24568.45642,"status":"passed"},"step":{"line":23,"prefix":"When","index":2,"text":"method post"},"stepLog":"21:32:48.278 request:\n1 > POST https:\/\/reqres.in\/api\/users\n1 > Content-Type: application\/json; charset=UTF-8\n1 > Content-Length: 36\n1 > Host: reqres.in\n1 > Connection: Keep-Alive\n1 > User-Agent: Apache-HttpClient\/4.5.12 (Java\/11.0.17)\n1 > Accept-Encoding: gzip,deflate\n{\"name\":\"morpheus1\",\"job\":\"leader1\"}\n\n21:33:12.660 response time in milliseconds: 24381\n1 < 201\n1 < Date: Mon, 23 Jan 2023 16:03:06 GMT\n1 < Content-Type: application\/json; charset=utf-8\n1 < Content-Length: 86\n1 < Connection: keep-alive\n1 < X-Powered-By: Express\n1 < Access-Control-Allow-Origin: *\n1 < Etag: W\/\"56-bIkcv+PWeXWAGsugQvpyiBQHXzg\"\n1 < Via: 1.1 vegur\n1 < CF-Cache-Status: DYNAMIC\n1 < Report-To: {\"endpoints\":[{\"url\":\"https:\\\/\\\/a.nel.cloudflare.com\\\/report\\\/v3?s=%2BBs%2BmN4PjULUSLnNHPTa7EHkg89jPROzacqiB87Y6JyY0EaudN3yR%2FyGUcKZCyGXfwL85BvxtgBIOd8NM3G142uerb1sk%2FdGPIyHJDiForWhQFzUHbicgwm74w%3D%3D\"}],\"group\":\"cf-nel\",\"max_age\":604800}\n1 < NEL: {\"success_fraction\":0,\"report_to\":\"cf-nel\",\"max_age\":604800}\n1 < Server: cloudflare\n1 < CF-RAY: 78e1c1ea79403fe7-CMB\n{\"name\":\"morpheus1\",\"job\":\"leader1\",\"id\":\"221\",\"createdAt\":\"2023-01-23T16:03:06.272Z\"}\n\n"},{"result":{"nanos":7868,"millis":0.007868,"status":"passed"},"step":{"line":24,"prefix":"Then","index":3,"text":"status 201"}},{"result":{"nanos":1162827,"millis":1.162827,"status":"passed"},"step":{"line":25,"prefix":"Then","index":4,"text":"match response == \"#object\""}},{"result":{"nanos":819809,"millis":0.819809,"status":"passed"},"step":{"line":26,"prefix":"Then","index":5,"text":"match response.name == \"morpheus1\""}},{"result":{"nanos":438128,"millis":0.438128,"status":"passed"},"step":{"line":28,"prefix":"*","index":6,"text":"def personId = response"}}],"line":13,"description":"","durationMillis":24621.779576,"failed":false,"tags":["createUser"],"executorName":"pool-1-thread-2","name":"Create A person","startTime":1674489767836,"refId":"[2:13]","endTime":1674489792664,"exampleIndex":-1},{"sectionIndex":2,"stepResults":[{"result":{"nanos":934847,"millis":0.934847,"status":"passed"},"step":{"background":true,"line":3,"prefix":"*","index":0,"text":"url 'https:\/\/reqres.in\/api'"},"stepLog":"21:32:48.025 karate.env system property was: dev \n"},{"result":{"nanos":437107,"millis":0.437107,"status":"passed"},"step":{"line":32,"prefix":"Given","index":0,"text":"path \"users\""}},{"result":{"nanos":939816,"millis":0.939816,"status":"passed"},"step":{"line":33,"prefix":"And","index":1,"text":"param page = \"2\""}},{"result":{"nanos":24403099215,"millis":24403.099215,"status":"passed"},"step":{"line":34,"prefix":"When","index":2,"text":"method get"},"stepLog":"21:32:48.278 request:\n1 > GET https:\/\/reqres.in\/api\/users?page=2\n1 > Host: reqres.in\n1 > Connection: Keep-Alive\n1 > User-Agent: Apache-HttpClient\/4.5.12 (Java\/11.0.17)\n1 > Accept-Encoding: gzip,deflate\n\n\n21:33:12.441 response time in milliseconds: 24159\n1 < 200\n1 < Date: Mon, 23 Jan 2023 16:03:05 GMT\n1 < Content-Type: application\/json; charset=utf-8\n1 < Transfer-Encoding: chunked\n1 < Connection: keep-alive\n1 < X-Powered-By: Express\n1 < Access-Control-Allow-Origin: *\n1 < Etag: W\/\"406-ut0vzoCuidvyMf8arZpMpJ6ZRDw\"\n1 < Via: 1.1 vegur\n1 < Cache-Control: max-age=14400\n1 < CF-Cache-Status: HIT\n1 < Age: 396\n1 < Report-To: {\"endpoints\":[{\"url\":\"https:\\\/\\\/a.nel.cloudflare.com\\\/report\\\/v3?s=9g%2F0kwAnjFZOdkOm6kXPglE4NrrfNzn6Xxn8Mt47I6%2BwbWDBgBgHVlaiORP3RgPUpQrhU%2B%2FionhTNeQeN3em2QE8BWy%2F4W1qPRlp3dphMhnPZOz3Smw0tGk%2FSQ%3D%3D\"}],\"group\":\"cf-nel\",\"max_age\":604800}\n1 < NEL: {\"success_fraction\":0,\"report_to\":\"cf-nel\",\"max_age\":604800}\n1 < Vary: Accept-Encoding\n1 < Server: cloudflare\n1 < CF-RAY: 78e1c1e87fe492f6-CMB\n{\"page\":2,\"per_page\":6,\"total\":12,\"total_pages\":2,\"data\":[{\"id\":7,\"email\":\"michael.lawson@reqres.in\",\"first_name\":\"Michael\",\"last_name\":\"Lawson\",\"avatar\":\"https:\/\/reqres.in\/img\/faces\/7-image.jpg\"},{\"id\":8,\"email\":\"lindsay.ferguson@reqres.in\",\"first_name\":\"Lindsay\",\"last_name\":\"Ferguson\",\"avatar\":\"https:\/\/reqres.in\/img\/faces\/8-image.jpg\"},{\"id\":9,\"email\":\"tobias.funke@reqres.in\",\"first_name\":\"Tobias\",\"last_name\":\"Funke\",\"avatar\":\"https:\/\/reqres.in\/img\/faces\/9-image.jpg\"},{\"id\":10,\"email\":\"byron.fields@reqres.in\",\"first_name\":\"Byron\",\"last_name\":\"Fields\",\"avatar\":\"https:\/\/reqres.in\/img\/faces\/10-image.jpg\"},{\"id\":11,\"email\":\"george.edwards@reqres.in\",\"first_name\":\"George\",\"last_name\":\"Edwards\",\"avatar\":\"https:\/\/reqres.in\/img\/faces\/11-image.jpg\"},{\"id\":12,\"email\":\"rachel.howell@reqres.in\",\"first_name\":\"Rachel\",\"last_name\":\"Howell\",\"avatar\":\"https:\/\/reqres.in\/img\/faces\/12-image.jpg\"}],\"support\":{\"url\":\"https:\/\/reqres.in\/#support-heading\",\"text\":\"To keep ReqRes free, contributions towards server costs are appreciated!\"}}\n\n"},{"result":{"nanos":21118,"millis":0.021118,"status":"passed"},"step":{"line":35,"prefix":"Then","index":3,"text":"status 200"}},{"result":{"nanos":17902817,"millis":17.902817,"status":"passed"},"step":{"line":36,"prefix":"Then","index":4,"text":"match response.page == 2"}}],"line":31,"description":"","durationMillis":24423.33492,"failed":false,"tags":["getUserbyParam"],"executorName":"pool-1-thread-3","name":"Get the details of user by param","startTime":1674489767836,"refId":"[3:31]","endTime":1674489792461,"exampleIndex":-1}],"callDepth":0,"name":"Get the user details of 2","description":"","resultDate":"2023-01-23 09:33:12 PM","durationMillis":73561.726051,"passedCount":3}