{"failedCount":0,"prefixedPath":"classpath:features\/api\/getapi.feature","packageQualifiedName":"features.api.getapi","loopIndex":-1,"relativePath":"features\/api\/getapi.feature","scenarioResults":[{"sectionIndex":0,"stepResults":[{"result":{"nanos":1096527,"millis":1.096527,"status":"passed"},"step":{"background":true,"line":3,"prefix":"*","index":0,"text":"url 'https:\/\/reqres.in\/api'"},"stepLog":"21:37:00.336 karate.env system property was: dev \n"},{"result":{"nanos":675576,"millis":0.675576,"status":"passed"},"step":{"line":7,"prefix":"Given","index":0,"text":"path \"users\/2\""}},{"result":{"nanos":10289767642,"millis":10289.767642,"status":"passed"},"step":{"line":8,"prefix":"When","index":1,"text":"method get"},"stepLog":"21:37:00.562 request:\n1 > GET https:\/\/reqres.in\/api\/users\/2\n1 > Host: reqres.in\n1 > Connection: Keep-Alive\n1 > User-Agent: Apache-HttpClient\/4.5.12 (Java\/11.0.17)\n1 > Accept-Encoding: gzip,deflate\n\n\n21:37:10.635 response time in milliseconds: 10072\n1 < 200\n1 < Date: Mon, 23 Jan 2023 16:07:10 GMT\n1 < Content-Type: application\/json; charset=utf-8\n1 < Transfer-Encoding: chunked\n1 < Connection: keep-alive\n1 < X-Powered-By: Express\n1 < Access-Control-Allow-Origin: *\n1 < Etag: W\/\"118-pbdwwFo9SKNhD3Lx5iHJyngpq00\"\n1 < Via: 1.1 vegur\n1 < Cache-Control: max-age=14400\n1 < CF-Cache-Status: HIT\n1 < Age: 641\n1 < Report-To: {\"endpoints\":[{\"url\":\"https:\\\/\\\/a.nel.cloudflare.com\\\/report\\\/v3?s=p7mfSedk1pL%2FLzfnCI5bPtQcayI9d4X0btmEqQEVT2y375T3I39C1O4LOlnryTfbJZgWnIL1QlZtiABGMd8fZQJvJIX6VYMnRTLIaYiuFkxYoMyPK%2FhC0bTgfA%3D%3D\"}],\"group\":\"cf-nel\",\"max_age\":604800}\n1 < NEL: {\"success_fraction\":0,\"report_to\":\"cf-nel\",\"max_age\":604800}\n1 < Vary: Accept-Encoding\n1 < Server: cloudflare\n1 < CF-RAY: 78e1c7e0bfa192f5-CMB\n{\"data\":{\"id\":2,\"email\":\"janet.weaver@reqres.in\",\"first_name\":\"Janet\",\"last_name\":\"Weaver\",\"avatar\":\"https:\/\/reqres.in\/img\/faces\/2-image.jpg\"},\"support\":{\"url\":\"https:\/\/reqres.in\/#support-heading\",\"text\":\"To keep ReqRes free, contributions towards server costs are appreciated!\"}}\n\n"},{"result":{"nanos":9742,"millis":0.009742,"status":"passed"},"step":{"line":9,"prefix":"Then","index":2,"text":"status 200"}}],"line":6,"description":"","durationMillis":10291.549487,"failed":false,"tags":["getUser"],"executorName":"pool-1-thread-1","name":"Get the details of user2","startTime":1674490020138,"refId":"[1:6]","endTime":1674490030636,"exampleIndex":-1},{"sectionIndex":1,"stepResults":[{"result":{"nanos":740071,"millis":0.740071,"status":"passed"},"step":{"background":true,"line":3,"prefix":"*","index":0,"text":"url 'https:\/\/reqres.in\/api'"},"stepLog":"21:37:00.350 karate.env system property was: dev \n"},{"result":{"nanos":473864,"millis":0.473864,"status":"passed"},"step":{"line":14,"prefix":"Given","index":0,"text":"path \"users\""}},{"result":{"nanos":43221709,"millis":43.221709,"status":"passed"},"step":{"endLine":22,"line":15,"prefix":"And","docString":"{\n \"name\": \"morpheus1\",\n \"job\": \"leader1\",\n}","index":1,"text":"request"}},{"result":{"nanos":10165002709,"millis":10165.002709,"status":"passed"},"step":{"line":23,"prefix":"When","index":2,"text":"method post"},"stepLog":"21:37:00.563 request:\n1 > POST https:\/\/reqres.in\/api\/users\n1 > Content-Type: application\/json; charset=UTF-8\n1 > Content-Length: 36\n1 > Host: reqres.in\n1 > Connection: Keep-Alive\n1 > User-Agent: Apache-HttpClient\/4.5.12 (Java\/11.0.17)\n1 > Accept-Encoding: gzip,deflate\n{\"name\":\"morpheus1\",\"job\":\"leader1\"}\n\n21:37:10.561 response time in milliseconds: 9998\n1 < 201\n1 < Date: Mon, 23 Jan 2023 16:07:10 GMT\n1 < Content-Type: application\/json; charset=utf-8\n1 < Content-Length: 85\n1 < Connection: keep-alive\n1 < X-Powered-By: Express\n1 < Access-Control-Allow-Origin: *\n1 < Etag: W\/\"55-O\/OxHesTSgn03D8F7UChc9JZa1o\"\n1 < Via: 1.1 vegur\n1 < CF-Cache-Status: DYNAMIC\n1 < Report-To: {\"endpoints\":[{\"url\":\"https:\\\/\\\/a.nel.cloudflare.com\\\/report\\\/v3?s=RA5itKeAHcWacRBzUiXMMRnd8cinu0yISTeTz66U8J8SEeEtesLgWrKfmSt4iXPBpmADwHFNZs5FLAV3vGi30CgJ7na2bL0m4TBXNMVjTyrUakvIsuf4Kz3sNA%3D%3D\"}],\"group\":\"cf-nel\",\"max_age\":604800}\n1 < NEL: {\"success_fraction\":0,\"report_to\":\"cf-nel\",\"max_age\":604800}\n1 < Server: cloudflare\n1 < CF-RAY: 78e1c7de4d9892f9-CMB\n{\"name\":\"morpheus1\",\"job\":\"leader1\",\"id\":\"61\",\"createdAt\":\"2023-01-23T16:07:10.109Z\"}\n\n"},{"result":{"nanos":8608,"millis":0.008608,"status":"passed"},"step":{"line":24,"prefix":"Then","index":3,"text":"status 201"}},{"result":{"nanos":1087499,"millis":1.087499,"status":"passed"},"step":{"line":25,"prefix":"Then","index":4,"text":"match response == \"#object\""}},{"result":{"nanos":916258,"millis":0.916258,"status":"passed"},"step":{"line":26,"prefix":"Then","index":5,"text":"match response.name == \"morpheus1\""}},{"result":{"nanos":344230,"millis":0.34423,"status":"passed"},"step":{"line":28,"prefix":"*","index":6,"text":"def personId = response"}}],"line":13,"description":"","durationMillis":10211.794948,"failed":false,"tags":["createUser"],"executorName":"pool-1-thread-2","name":"Create A person","startTime":1674490020138,"refId":"[2:13]","endTime":1674490030565,"exampleIndex":-1},{"sectionIndex":2,"stepResults":[{"result":{"nanos":681926,"millis":0.681926,"status":"passed"},"step":{"background":true,"line":3,"prefix":"*","index":0,"text":"url 'https:\/\/reqres.in\/api'"},"stepLog":"21:37:00.344 karate.env system property was: dev \n"},{"result":{"nanos":334332,"millis":0.334332,"status":"passed"},"step":{"line":32,"prefix":"Given","index":0,"text":"path \"users\""}},{"result":{"nanos":900472,"millis":0.900472,"status":"passed"},"step":{"line":33,"prefix":"And","index":1,"text":"param page = \"2\""}},{"result":{"nanos":9690474271,"millis":9690.474271,"status":"passed"},"step":{"line":34,"prefix":"When","index":2,"text":"method get"},"stepLog":"21:37:00.562 request:\n1 > GET https:\/\/reqres.in\/api\/users?page=2\n1 > Host: reqres.in\n1 > Connection: Keep-Alive\n1 > User-Agent: Apache-HttpClient\/4.5.12 (Java\/11.0.17)\n1 > Accept-Encoding: gzip,deflate\n\n\n21:37:10.038 response time in milliseconds: 9472\n1 < 200\n1 < Date: Mon, 23 Jan 2023 16:07:09 GMT\n1 < Content-Type: application\/json; charset=utf-8\n1 < Transfer-Encoding: chunked\n1 < Connection: keep-alive\n1 < X-Powered-By: Express\n1 < Access-Control-Allow-Origin: *\n1 < Etag: W\/\"406-ut0vzoCuidvyMf8arZpMpJ6ZRDw\"\n1 < Via: 1.1 vegur\n1 < Cache-Control: max-age=14400\n1 < CF-Cache-Status: HIT\n1 < Age: 640\n1 < Report-To: {\"endpoints\":[{\"url\":\"https:\\\/\\\/a.nel.cloudflare.com\\\/report\\\/v3?s=yGWRpu0SJ6O%2BBRPfvNKAaaAv9ZyYLomYPtREhHEs%2FchPRSIrAo4ewuIcXg6xCna%2Frs44MrXW2njAcGwb0%2Fr3oKR5ZzaG1rSIAyle82riMtkf9qiZDanSg73ywg%3D%3D\"}],\"group\":\"cf-nel\",\"max_age\":604800}\n1 < NEL: {\"success_fraction\":0,\"report_to\":\"cf-nel\",\"max_age\":604800}\n1 < Vary: Accept-Encoding\n1 < Server: cloudflare\n1 < CF-RAY: 78e1c7de8be342c5-CMB\n{\"page\":2,\"per_page\":6,\"total\":12,\"total_pages\":2,\"data\":[{\"id\":7,\"email\":\"michael.lawson@reqres.in\",\"first_name\":\"Michael\",\"last_name\":\"Lawson\",\"avatar\":\"https:\/\/reqres.in\/img\/faces\/7-image.jpg\"},{\"id\":8,\"email\":\"lindsay.ferguson@reqres.in\",\"first_name\":\"Lindsay\",\"last_name\":\"Ferguson\",\"avatar\":\"https:\/\/reqres.in\/img\/faces\/8-image.jpg\"},{\"id\":9,\"email\":\"tobias.funke@reqres.in\",\"first_name\":\"Tobias\",\"last_name\":\"Funke\",\"avatar\":\"https:\/\/reqres.in\/img\/faces\/9-image.jpg\"},{\"id\":10,\"email\":\"byron.fields@reqres.in\",\"first_name\":\"Byron\",\"last_name\":\"Fields\",\"avatar\":\"https:\/\/reqres.in\/img\/faces\/10-image.jpg\"},{\"id\":11,\"email\":\"george.edwards@reqres.in\",\"first_name\":\"George\",\"last_name\":\"Edwards\",\"avatar\":\"https:\/\/reqres.in\/img\/faces\/11-image.jpg\"},{\"id\":12,\"email\":\"rachel.howell@reqres.in\",\"first_name\":\"Rachel\",\"last_name\":\"Howell\",\"avatar\":\"https:\/\/reqres.in\/img\/faces\/12-image.jpg\"}],\"support\":{\"url\":\"https:\/\/reqres.in\/#support-heading\",\"text\":\"To keep ReqRes free, contributions towards server costs are appreciated!\"}}\n\n"},{"result":{"nanos":19151,"millis":0.019151,"status":"passed"},"step":{"line":35,"prefix":"Then","index":3,"text":"status 200"}},{"result":{"nanos":16049582,"millis":16.049582,"status":"passed"},"step":{"line":36,"prefix":"Then","index":4,"text":"match response.page == 2"}}],"line":31,"description":"","durationMillis":9708.459734,"failed":false,"tags":["getUserbyParam"],"executorName":"pool-1-thread-3","name":"Get the details of user by param","startTime":1674490020138,"refId":"[3:31]","endTime":1674490030056,"exampleIndex":-1}],"callDepth":0,"name":"Get the user details of 2","description":"","resultDate":"2023-01-23 09:37:10 PM","durationMillis":30211.804169,"passedCount":3}