{"failedCount":0,"prefixedPath":"classpath:features\/api\/getapi.feature","packageQualifiedName":"features.api.getapi","loopIndex":-1,"relativePath":"features\/api\/getapi.feature","scenarioResults":[{"sectionIndex":0,"stepResults":[{"result":{"nanos":794324,"millis":0.794324,"status":"passed"},"step":{"background":true,"line":3,"prefix":"*","index":0,"text":"url 'https:\/\/reqres.in\/api'"},"stepLog":"21:28:32.640 karate.env system property was: dev \n"},{"result":{"nanos":609927,"millis":0.609927,"status":"passed"},"step":{"line":7,"prefix":"Given","index":0,"text":"path \"users\/2\""}},{"result":{"nanos":857271929,"millis":857.271929,"status":"passed"},"step":{"line":8,"prefix":"When","index":1,"text":"method get"},"stepLog":"21:28:32.969 request:\n1 > GET https:\/\/reqres.in\/api\/users\/2\n1 > Host: reqres.in\n1 > Connection: Keep-Alive\n1 > User-Agent: Apache-HttpClient\/4.5.12 (Java\/11.0.17)\n1 > Accept-Encoding: gzip,deflate\n\n\n21:28:33.529 response time in milliseconds: 559\n1 < 200\n1 < Date: Mon, 23 Jan 2023 15:58:33 GMT\n1 < Content-Type: application\/json; charset=utf-8\n1 < Transfer-Encoding: chunked\n1 < Connection: keep-alive\n1 < X-Powered-By: Express\n1 < Access-Control-Allow-Origin: *\n1 < Etag: W\/\"118-pbdwwFo9SKNhD3Lx5iHJyngpq00\"\n1 < Via: 1.1 vegur\n1 < Cache-Control: max-age=14400\n1 < CF-Cache-Status: HIT\n1 < Age: 124\n1 < Report-To: {\"endpoints\":[{\"url\":\"https:\\\/\\\/a.nel.cloudflare.com\\\/report\\\/v3?s=Xd5p%2B%2FNyVQ9qwQZTQ9ni%2Fxp8LYEu5A9IUkT1ESEM23ygw64RQXxWrQFhQQD8jBX74UrNR6reK09JMyF1%2F681GUjaVjz7090FoHSMRGD5fWgstjj8n%2BY2BAaT3A%3D%3D\"}],\"group\":\"cf-nel\",\"max_age\":604800}\n1 < NEL: {\"success_fraction\":0,\"report_to\":\"cf-nel\",\"max_age\":604800}\n1 < Vary: Accept-Encoding\n1 < Server: cloudflare\n1 < CF-RAY: 78e1bb442a8e92f9-CMB\n{\"data\":{\"id\":2,\"email\":\"janet.weaver@reqres.in\",\"first_name\":\"Janet\",\"last_name\":\"Weaver\",\"avatar\":\"https:\/\/reqres.in\/img\/faces\/2-image.jpg\"},\"support\":{\"url\":\"https:\/\/reqres.in\/#support-heading\",\"text\":\"To keep ReqRes free, contributions towards server costs are appreciated!\"}}\n\n"},{"result":{"nanos":9058,"millis":0.009058,"status":"passed"},"step":{"line":9,"prefix":"Then","index":2,"text":"status 200"}}],"line":6,"description":"","durationMillis":858.685238,"failed":false,"tags":["getUser"],"executorName":"pool-1-thread-1","name":"Get the details of user2","startTime":1674489512450,"refId":"[1:6]","endTime":1674489513530,"exampleIndex":-1},{"sectionIndex":1,"stepResults":[{"result":{"nanos":991336,"millis":0.991336,"status":"passed"},"step":{"background":true,"line":3,"prefix":"*","index":0,"text":"url 'https:\/\/reqres.in\/api'"},"stepLog":"21:28:32.672 karate.env system property was: dev \n"},{"result":{"nanos":507634,"millis":0.507634,"status":"passed"},"step":{"line":14,"prefix":"Given","index":0,"text":"path \"users\""}},{"result":{"nanos":48656659,"millis":48.656659,"status":"passed"},"step":{"endLine":22,"line":15,"prefix":"And","docString":"{\n \"name\": \"morpheus1\",\n \"job\": \"leader1\",\n}","index":1,"text":"request"}},{"result":{"nanos":1469748589,"millis":1469.748589,"status":"passed"},"step":{"line":23,"prefix":"When","index":2,"text":"method post"},"stepLog":"21:28:32.970 request:\n1 > POST https:\/\/reqres.in\/api\/users\n1 > Content-Type: application\/json; charset=UTF-8\n1 > Content-Length: 36\n1 > Host: reqres.in\n1 > Connection: Keep-Alive\n1 > User-Agent: Apache-HttpClient\/4.5.12 (Java\/11.0.17)\n1 > Accept-Encoding: gzip,deflate\n{\"name\":\"morpheus1\",\"job\":\"leader1\"}\n\n21:28:34.193 response time in milliseconds: 1223\n1 < 201\n1 < Date: Mon, 23 Jan 2023 15:58:34 GMT\n1 < Content-Type: application\/json; charset=utf-8\n1 < Content-Length: 86\n1 < Connection: keep-alive\n1 < X-Powered-By: Express\n1 < Access-Control-Allow-Origin: *\n1 < Etag: W\/\"56-AGuyImCs9gv8PRkgg0EBenj3xMA\"\n1 < Via: 1.1 vegur\n1 < CF-Cache-Status: DYNAMIC\n1 < Report-To: {\"endpoints\":[{\"url\":\"https:\\\/\\\/a.nel.cloudflare.com\\\/report\\\/v3?s=4Z4Bv7GzQctEVKe9dsSAlGSwpqoUd3ax9f0dedJZdD8vjcYr6iKuNlVmJR0rHhaIQfNaVs4ZAsYuyyOKjJ7uLvWgvbBt2aJKlKYuT1odWoWwAIjX%2Btq2krU%2F4A%3D%3D\"}],\"group\":\"cf-nel\",\"max_age\":604800}\n1 < NEL: {\"success_fraction\":0,\"report_to\":\"cf-nel\",\"max_age\":604800}\n1 < Server: cloudflare\n1 < CF-RAY: 78e1bb44296892f6-CMB\n{\"name\":\"morpheus1\",\"job\":\"leader1\",\"id\":\"360\",\"createdAt\":\"2023-01-23T15:58:33.933Z\"}\n\n"},{"result":{"nanos":12635,"millis":0.012635,"status":"passed"},"step":{"line":24,"prefix":"Then","index":3,"text":"status 201"}},{"result":{"nanos":1283825,"millis":1.283825,"status":"passed"},"step":{"line":25,"prefix":"Then","index":4,"text":"match response == \"#object\""}},{"result":{"nanos":831255,"millis":0.831255,"status":"passed"},"step":{"line":26,"prefix":"Then","index":5,"text":"match response.name == \"morpheus1\""}},{"result":{"nanos":407177,"millis":0.407177,"status":"passed"},"step":{"line":28,"prefix":"*","index":6,"text":"def personId = response"}}],"line":13,"description":"","durationMillis":1522.43911,"failed":false,"tags":["createUser"],"executorName":"pool-1-thread-2","name":"Create A person","startTime":1674489512450,"refId":"[2:13]","endTime":1674489514199,"exampleIndex":-1},{"sectionIndex":2,"stepResults":[{"result":{"nanos":542124,"millis":0.542124,"status":"passed"},"step":{"background":true,"line":3,"prefix":"*","index":0,"text":"url 'https:\/\/reqres.in\/api'"},"stepLog":"21:28:32.681 karate.env system property was: dev \n"},{"result":{"nanos":312806,"millis":0.312806,"status":"passed"},"step":{"line":32,"prefix":"Given","index":0,"text":"path \"users\""}},{"result":{"nanos":1005974,"millis":1.005974,"status":"passed"},"step":{"line":33,"prefix":"And","index":1,"text":"param page = \"2\""}},{"result":{"nanos":826284647,"millis":826.284647,"status":"passed"},"step":{"line":34,"prefix":"When","index":2,"text":"method get"},"stepLog":"21:28:32.969 request:\n1 > GET https:\/\/reqres.in\/api\/users?page=2\n1 > Host: reqres.in\n1 > Connection: Keep-Alive\n1 > User-Agent: Apache-HttpClient\/4.5.12 (Java\/11.0.17)\n1 > Accept-Encoding: gzip,deflate\n\n\n21:28:33.510 response time in milliseconds: 537\n1 < 200\n1 < Date: Mon, 23 Jan 2023 15:58:33 GMT\n1 < Content-Type: application\/json; charset=utf-8\n1 < Transfer-Encoding: chunked\n1 < Connection: keep-alive\n1 < X-Powered-By: Express\n1 < Access-Control-Allow-Origin: *\n1 < Etag: W\/\"406-ut0vzoCuidvyMf8arZpMpJ6ZRDw\"\n1 < Via: 1.1 vegur\n1 < Cache-Control: max-age=14400\n1 < CF-Cache-Status: HIT\n1 < Age: 124\n1 < Report-To: {\"endpoints\":[{\"url\":\"https:\\\/\\\/a.nel.cloudflare.com\\\/report\\\/v3?s=vpcR2RTfIntiw4vTK%2F1P2QxJ%2F5eYAjujok1F8QBoE4nfgNEaGl6Cxc%2BvU%2FmXCXnW3jOicY8C2xi%2FrmF3nkevUonDe533Pn3aXeBW3ld%2B9KMx%2FehnStA6RXS85Q%3D%3D\"}],\"group\":\"cf-nel\",\"max_age\":604800}\n1 < NEL: {\"success_fraction\":0,\"report_to\":\"cf-nel\",\"max_age\":604800}\n1 < Vary: Accept-Encoding\n1 < Server: cloudflare\n1 < CF-RAY: 78e1bb44296992f6-CMB\n{\"page\":2,\"per_page\":6,\"total\":12,\"total_pages\":2,\"data\":[{\"id\":7,\"email\":\"michael.lawson@reqres.in\",\"first_name\":\"Michael\",\"last_name\":\"Lawson\",\"avatar\":\"https:\/\/reqres.in\/img\/faces\/7-image.jpg\"},{\"id\":8,\"email\":\"lindsay.ferguson@reqres.in\",\"first_name\":\"Lindsay\",\"last_name\":\"Ferguson\",\"avatar\":\"https:\/\/reqres.in\/img\/faces\/8-image.jpg\"},{\"id\":9,\"email\":\"tobias.funke@reqres.in\",\"first_name\":\"Tobias\",\"last_name\":\"Funke\",\"avatar\":\"https:\/\/reqres.in\/img\/faces\/9-image.jpg\"},{\"id\":10,\"email\":\"byron.fields@reqres.in\",\"first_name\":\"Byron\",\"last_name\":\"Fields\",\"avatar\":\"https:\/\/reqres.in\/img\/faces\/10-image.jpg\"},{\"id\":11,\"email\":\"george.edwards@reqres.in\",\"first_name\":\"George\",\"last_name\":\"Edwards\",\"avatar\":\"https:\/\/reqres.in\/img\/faces\/11-image.jpg\"},{\"id\":12,\"email\":\"rachel.howell@reqres.in\",\"first_name\":\"Rachel\",\"last_name\":\"Howell\",\"avatar\":\"https:\/\/reqres.in\/img\/faces\/12-image.jpg\"}],\"support\":{\"url\":\"https:\/\/reqres.in\/#support-heading\",\"text\":\"To keep ReqRes free, contributions towards server costs are appreciated!\"}}\n\n"},{"result":{"nanos":36854,"millis":0.036854,"status":"passed"},"step":{"line":35,"prefix":"Then","index":3,"text":"status 200"}},{"result":{"nanos":17813145,"millis":17.813145,"status":"passed"},"step":{"line":36,"prefix":"Then","index":4,"text":"match response.page == 2"}}],"line":31,"description":"","durationMillis":845.99555,"failed":false,"tags":["getUserbyParam"],"executorName":"pool-1-thread-3","name":"Get the details of user by param","startTime":1674489512450,"refId":"[3:31]","endTime":1674489513530,"exampleIndex":-1}],"callDepth":0,"name":"Get the user details of 2","description":"","resultDate":"2023-01-23 09:28:34 PM","durationMillis":3227.119898,"passedCount":3}