{"failedCount":0,"prefixedPath":"classpath:features\/api\/getapi.feature","packageQualifiedName":"features.api.getapi","loopIndex":-1,"relativePath":"features\/api\/getapi.feature","scenarioResults":[{"sectionIndex":0,"stepResults":[{"result":{"nanos":1280013,"millis":1.280013,"status":"passed"},"step":{"background":true,"line":3,"prefix":"*","index":0,"text":"url 'https:\/\/reqres.in\/api'"},"stepLog":"21:38:30.018 karate.env system property was: dev \n"},{"result":{"nanos":590371,"millis":0.590371,"status":"passed"},"step":{"line":7,"prefix":"Given","index":0,"text":"path \"users\/2\""}},{"result":{"nanos":8545912509,"millis":8545.912509,"status":"passed"},"step":{"line":8,"prefix":"When","index":1,"text":"method get"},"stepLog":"21:38:30.278 request:\n1 > GET https:\/\/reqres.in\/api\/users\/2\n1 > Host: reqres.in\n1 > Connection: Keep-Alive\n1 > User-Agent: Apache-HttpClient\/4.5.12 (Java\/11.0.17)\n1 > Accept-Encoding: gzip,deflate\n\n\n21:38:38.596 response time in milliseconds: 8313\n1 < 200\n1 < Date: Mon, 23 Jan 2023 16:08:37 GMT\n1 < Content-Type: application\/json; charset=utf-8\n1 < Transfer-Encoding: chunked\n1 < Connection: keep-alive\n1 < X-Powered-By: Express\n1 < Access-Control-Allow-Origin: *\n1 < Etag: W\/\"118-pbdwwFo9SKNhD3Lx5iHJyngpq00\"\n1 < Via: 1.1 vegur\n1 < Cache-Control: max-age=14400\n1 < CF-Cache-Status: HIT\n1 < Age: 728\n1 < Report-To: {\"endpoints\":[{\"url\":\"https:\\\/\\\/a.nel.cloudflare.com\\\/report\\\/v3?s=qEBnDCob8Wk26jSQzvWQdpn8u1ZjeLwzst9CQo3pLfzwmmK%2BmDlSMSdw3i7HZr01AYbaQqH7Qp5CnRZORkAKQLBvUAWzIQU%2F%2BIF5k4dD5w%2F6Yc5BMVmOGUh4lw%3D%3D\"}],\"group\":\"cf-nel\",\"max_age\":604800}\n1 < NEL: {\"success_fraction\":0,\"report_to\":\"cf-nel\",\"max_age\":604800}\n1 < Vary: Accept-Encoding\n1 < Server: cloudflare\n1 < CF-RAY: 78e1ca01e8dd92f5-CMB\n{\"data\":{\"id\":2,\"email\":\"janet.weaver@reqres.in\",\"first_name\":\"Janet\",\"last_name\":\"Weaver\",\"avatar\":\"https:\/\/reqres.in\/img\/faces\/2-image.jpg\"},\"support\":{\"url\":\"https:\/\/reqres.in\/#support-heading\",\"text\":\"To keep ReqRes free, contributions towards server costs are appreciated!\"}}\n\n"},{"result":{"nanos":21969,"millis":0.021969,"status":"passed"},"step":{"line":9,"prefix":"Then","index":2,"text":"status 200"}}],"line":6,"description":"","durationMillis":8547.804862,"failed":false,"tags":["getUser"],"executorName":"pool-1-thread-1","name":"Get the details of user2","startTime":1674490109842,"refId":"[1:6]","endTime":1674490118597,"exampleIndex":-1},{"sectionIndex":1,"stepResults":[{"result":{"nanos":903783,"millis":0.903783,"status":"passed"},"step":{"background":true,"line":3,"prefix":"*","index":0,"text":"url 'https:\/\/reqres.in\/api'"},"stepLog":"21:38:30.053 karate.env system property was: dev \n"},{"result":{"nanos":522933,"millis":0.522933,"status":"passed"},"step":{"line":14,"prefix":"Given","index":0,"text":"path \"users\""}},{"result":{"nanos":53582049,"millis":53.582049,"status":"passed"},"step":{"endLine":22,"line":15,"prefix":"And","docString":"{\n \"name\": \"morpheus1\",\n \"job\": \"leader1\",\n}","index":1,"text":"request"}},{"result":{"nanos":14690181322,"millis":14690.181322,"status":"passed"},"step":{"line":23,"prefix":"When","index":2,"text":"method post"},"stepLog":"21:38:30.279 request:\n1 > POST https:\/\/reqres.in\/api\/users\n1 > Content-Type: application\/json; charset=UTF-8\n1 > Content-Length: 36\n1 > Host: reqres.in\n1 > Connection: Keep-Alive\n1 > User-Agent: Apache-HttpClient\/4.5.12 (Java\/11.0.17)\n1 > Accept-Encoding: gzip,deflate\n{\"name\":\"morpheus1\",\"job\":\"leader1\"}\n\n21:38:44.802 response time in milliseconds: 14522\n1 < 201\n1 < Date: Mon, 23 Jan 2023 16:08:40 GMT\n1 < Content-Type: application\/json; charset=utf-8\n1 < Content-Length: 86\n1 < Connection: keep-alive\n1 < X-Powered-By: Express\n1 < Access-Control-Allow-Origin: *\n1 < Etag: W\/\"56-2j4tfl8UoyH7LBreAG7MNwpInjA\"\n1 < Via: 1.1 vegur\n1 < CF-Cache-Status: DYNAMIC\n1 < Report-To: {\"endpoints\":[{\"url\":\"https:\\\/\\\/a.nel.cloudflare.com\\\/report\\\/v3?s=eQx1b%2B4f0o6MCaP5x40BoYFjhjk7hh5yIQ%2FquKPu%2FFABv5ae3PmY3OyYD0h%2F%2BCmZn6TEtDziyvam9yURjHttkphGWa%2BUJsBFzj%2B5clUshoqM6FBFBEP%2BcrQAfQ%3D%3D\"}],\"group\":\"cf-nel\",\"max_age\":604800}\n1 < NEL: {\"success_fraction\":0,\"report_to\":\"cf-nel\",\"max_age\":604800}\n1 < Server: cloudflare\n1 < CF-RAY: 78e1ca158aec92f6-CMB\n{\"name\":\"morpheus1\",\"job\":\"leader1\",\"id\":\"881\",\"createdAt\":\"2023-01-23T16:08:40.853Z\"}\n\n"},{"result":{"nanos":8468,"millis":0.008468,"status":"passed"},"step":{"line":24,"prefix":"Then","index":3,"text":"status 201"}},{"result":{"nanos":1157619,"millis":1.157619,"status":"passed"},"step":{"line":25,"prefix":"Then","index":4,"text":"match response == \"#object\""}},{"result":{"nanos":774564,"millis":0.774564,"status":"passed"},"step":{"line":26,"prefix":"Then","index":5,"text":"match response.name == \"morpheus1\""}},{"result":{"nanos":370662,"millis":0.370662,"status":"passed"},"step":{"line":28,"prefix":"*","index":6,"text":"def personId = response"}}],"line":13,"description":"","durationMillis":14747.5014,"failed":false,"tags":["createUser"],"executorName":"pool-1-thread-2","name":"Create A person","startTime":1674490109843,"refId":"[2:13]","endTime":1674490124805,"exampleIndex":-1},{"sectionIndex":2,"stepResults":[{"result":{"nanos":720476,"millis":0.720476,"status":"passed"},"step":{"background":true,"line":3,"prefix":"*","index":0,"text":"url 'https:\/\/reqres.in\/api'"},"stepLog":"21:38:30.063 karate.env system property was: dev \n"},{"result":{"nanos":460190,"millis":0.46019,"status":"passed"},"step":{"line":32,"prefix":"Given","index":0,"text":"path \"users\""}},{"result":{"nanos":910805,"millis":0.910805,"status":"passed"},"step":{"line":33,"prefix":"And","index":1,"text":"param page = \"2\""}},{"result":{"nanos":8772396693,"millis":8772.396693,"status":"passed"},"step":{"line":34,"prefix":"When","index":2,"text":"method get"},"stepLog":"21:38:30.278 request:\n1 > GET https:\/\/reqres.in\/api\/users?page=2\n1 > Host: reqres.in\n1 > Connection: Keep-Alive\n1 > User-Agent: Apache-HttpClient\/4.5.12 (Java\/11.0.17)\n1 > Accept-Encoding: gzip,deflate\n\n\n21:38:38.839 response time in milliseconds: 8560\n1 < 200\n1 < Date: Mon, 23 Jan 2023 16:08:37 GMT\n1 < Content-Type: application\/json; charset=utf-8\n1 < Transfer-Encoding: chunked\n1 < Connection: keep-alive\n1 < X-Powered-By: Express\n1 < Access-Control-Allow-Origin: *\n1 < Etag: W\/\"406-ut0vzoCuidvyMf8arZpMpJ6ZRDw\"\n1 < Via: 1.1 vegur\n1 < Cache-Control: max-age=14400\n1 < CF-Cache-Status: HIT\n1 < Age: 728\n1 < Report-To: {\"endpoints\":[{\"url\":\"https:\\\/\\\/a.nel.cloudflare.com\\\/report\\\/v3?s=1hRF5Vvh%2B20B%2BogYjrGUcMtjS69arC9hcrG%2BIpc1B%2FAqOYS06DYDZO7M%2F9Lt1Odz%2B4wvg0g5Jm8reTUzkjEJZgv556pQYQCReH9tsmy6C5%2BB1Iul5aBMAYsxag%3D%3D\"}],\"group\":\"cf-nel\",\"max_age\":604800}\n1 < NEL: {\"success_fraction\":0,\"report_to\":\"cf-nel\",\"max_age\":604800}\n1 < Vary: Accept-Encoding\n1 < Server: cloudflare\n1 < CF-RAY: 78e1ca03cf2792f9-CMB\n{\"page\":2,\"per_page\":6,\"total\":12,\"total_pages\":2,\"data\":[{\"id\":7,\"email\":\"michael.lawson@reqres.in\",\"first_name\":\"Michael\",\"last_name\":\"Lawson\",\"avatar\":\"https:\/\/reqres.in\/img\/faces\/7-image.jpg\"},{\"id\":8,\"email\":\"lindsay.ferguson@reqres.in\",\"first_name\":\"Lindsay\",\"last_name\":\"Ferguson\",\"avatar\":\"https:\/\/reqres.in\/img\/faces\/8-image.jpg\"},{\"id\":9,\"email\":\"tobias.funke@reqres.in\",\"first_name\":\"Tobias\",\"last_name\":\"Funke\",\"avatar\":\"https:\/\/reqres.in\/img\/faces\/9-image.jpg\"},{\"id\":10,\"email\":\"byron.fields@reqres.in\",\"first_name\":\"Byron\",\"last_name\":\"Fields\",\"avatar\":\"https:\/\/reqres.in\/img\/faces\/10-image.jpg\"},{\"id\":11,\"email\":\"george.edwards@reqres.in\",\"first_name\":\"George\",\"last_name\":\"Edwards\",\"avatar\":\"https:\/\/reqres.in\/img\/faces\/11-image.jpg\"},{\"id\":12,\"email\":\"rachel.howell@reqres.in\",\"first_name\":\"Rachel\",\"last_name\":\"Howell\",\"avatar\":\"https:\/\/reqres.in\/img\/faces\/12-image.jpg\"}],\"support\":{\"url\":\"https:\/\/reqres.in\/#support-heading\",\"text\":\"To keep ReqRes free, contributions towards server costs are appreciated!\"}}\n\n"},{"result":{"nanos":9715,"millis":0.009715,"status":"passed"},"step":{"line":35,"prefix":"Then","index":3,"text":"status 200"}},{"result":{"nanos":19632510,"millis":19.63251,"status":"passed"},"step":{"line":36,"prefix":"Then","index":4,"text":"match response.page == 2"}}],"line":31,"description":"","durationMillis":8794.130389,"failed":false,"tags":["getUserbyParam"],"executorName":"pool-1-thread-3","name":"Get the details of user by param","startTime":1674490109842,"refId":"[3:31]","endTime":1674490118861,"exampleIndex":-1}],"callDepth":0,"name":"Get the user details of 2","description":"","resultDate":"2023-01-23 09:38:44 PM","durationMillis":32089.436651,"passedCount":3}